barret/barret_gen/waveform.vcd
$version Generated by VerilatedVcd $end
$date Thu Feb 29 16:21:13 2024
 $end
$timescale   1ps $end

 $scope module TOP $end
  $var wire 22 # din_a [21:0] $end
  $var wire 11 $ dout_r [10:0] $end
  $scope module barret $end
   $var wire 22 # din_a [21:0] $end
   $var wire 11 $ dout_r [10:0] $end
   $var wire 22 * mu_constant [21:0] $end
   $var wire 22 ( mult [21:0] $end
   $var wire 22 & q_hat [21:0] $end
   $var wire 22 % q_val [21:0] $end
   $var wire 22 ) result [21:0] $end
   $var wire 22 ' t_val [21:0] $end
  $upscope $end
 $upscope $end
$enddefinitions $end


#0
b0000000000000000000000 #
b00000000000 $
b0000000000000000000000 %
b0000000000000000000000 &
b0000000000000000000000 '
b0000000000000000000000 (
b0000000000000000000000 )
b0000000000100000001001 *
#1
#2
b0000000000000000000001 #
b00000000001 $
b0000000000000000000001 )
#3
#4
b0000000000000000000010 #
b00000000010 $
b0000000000000000000010 )
#5
#6
b0000000000000000000011 #
b00000000011 $
b0000000000000000000011 )
#7
#8
b0000000000000000000100 #
b00000000100 $
b0000000000000000000100 )
#9
#10
b0000000000000000000101 #
b00000000101 $
b0000000000000000000101 )
#11
#12
b0000000000000000000110 #
b00000000110 $
b0000000000000000000110 )
#13
#14
b0000000000000000000111 #
b00000000111 $
b0000000000000000000111 )
#15
#16
b0000000000000000001000 #
b00000001000 $
b0000000000000000001000 )
#17
#18
b0000000000000000001001 #
b00000001001 $
b0000000000000000001001 )
#19
#20
b0000000000000000001010 #
b00000001010 $
b0000000000000000001010 )
#21
#22
b0000000000000000001011 #
b00000001011 $
b0000000000000000001011 )
#23
#24
b0000000000000000001100 #
b00000001100 $
b0000000000000000001100 )
#25
#26
b0000000000000000001101 #
b00000001101 $
b0000000000000000001101 )
#27
#28
b0000000000000000001110 #
b00000001110 $
b0000000000000000001110 )
#29
#30
b0000000000000000001111 #
b00000001111 $
b0000000000000000001111 )
#31
#32
b0000000000000000010000 #
b00000010000 $
b0000000000000000010000 )
#33
#34
b0000000000000000010001 #
b00000010001 $
b0000000000000000010001 )
#35
#36
b0000000000000000010010 #
b00000010010 $
b0000000000000000010010 )
#37
#38
b0000000000000000010011 #
b00000010011 $
b0000000000000000010011 )
#39
#40
b0000000000000000010100 #
b00000010100 $
b0000000000000000010100 )
#41
#42
b0000000000000000010101 #
b00000010101 $
b0000000000000000010101 )
#43
#44
b0000000000000000010110 #
b00000010110 $
b0000000000000000010110 )
#45
#46
b0000000000000000010111 #
b00000010111 $
b0000000000000000010111 )
#47
#48
b0000000000000000011000 #
b00000011000 $
b0000000000000000011000 )
#49
#50
b0000000000000000011001 #
b00000011001 $
b0000000000000000011001 )
#51
#52
b0000000000000000011010 #
b00000011010 $
b0000000000000000011010 )
#53
#54
b0000000000000000011011 #
b00000011011 $
b0000000000000000011011 )
#55
#56
b0000000000000000011100 #
b00000011100 $
b0000000000000000011100 )
#57
#58
b0000000000000000011101 #
b00000011101 $
b0000000000000000011101 )
#59
#60
b0000000000000000011110 #
b00000011110 $
b0000000000000000011110 )
#61
#62
b0000000000000000011111 #
b00000011111 $
b0000000000000000011111 )
#63
#64
b0000000000000000100000 #
b00000100000 $
b0000000000000000100000 )
#65
#66
b0000000000000000100001 #
b00000100001 $
b0000000000000000100001 )
#67
#68
b0000000000000000100010 #
b00000100010 $
b0000000000000000100010 )
#69
#70
b0000000000000000100011 #
b00000100011 $
b0000000000000000100011 )
#71
#72
b0000000000000000100100 #
b00000100100 $
b0000000000000000100100 )
#73
#74
b0000000000000000100101 #
b00000100101 $
b0000000000000000100101 )
#75
#76
b0000000000000000100110 #
b00000100110 $
b0000000000000000100110 )
#77
#78
b0000000000000000100111 #
b00000100111 $
b0000000000000000100111 )
#79
#80
b0000000000000000101000 #
b00000101000 $
b0000000000000000101000 )
#81
#82
b0000000000000000101001 #
b00000101001 $
b0000000000000000101001 )
#83
#84
b0000000000000000101010 #
b00000101010 $
b0000000000000000101010 )
#85
#86
b0000000000000000101011 #
b00000101011 $
b0000000000000000101011 )
#87
#88
b0000000000000000101100 #
b00000101100 $
b0000000000000000101100 )
#89
#90
b0000000000000000101101 #
b00000101101 $
b0000000000000000101101 )
#91
#92
b0000000000000000101110 #
b00000101110 $
b0000000000000000101110 )
#93
#94
b0000000000000000101111 #
b00000101111 $
b0000000000000000101111 )
#95
#96
b0000000000000000110000 #
b00000110000 $
b0000000000000000110000 )
#97
#98
b0000000000000000110001 #
b00000110001 $
b0000000000000000110001 )
#99
#100
b0000000000000000110010 #
b00000110010 $
b0000000000000000110010 )
#101
#102
b0000000000000000110011 #
b00000110011 $
b0000000000000000110011 )
#103
#104
b0000000000000000110100 #
b00000110100 $
b0000000000000000110100 )
#105
#106
b0000000000000000110101 #
b00000110101 $
b0000000000000000110101 )
#107
#108
b0000000000000000110110 #
b00000110110 $
b0000000000000000110110 )
#109
#110
b0000000000000000110111 #
b00000110111 $
b0000000000000000110111 )
#111
#112
b0000000000000000111000 #
b00000111000 $
b0000000000000000111000 )
#113
#114
b0000000000000000111001 #
b00000111001 $
b0000000000000000111001 )
#115
#116
b0000000000000000111010 #
b00000111010 $
b0000000000000000111010 )
#117
#118
b0000000000000000111011 #
b00000111011 $
b0000000000000000111011 )
#119
#120
b0000000000000000111100 #
b00000111100 $
b0000000000000000111100 )
#121
#122
b0000000000000000111101 #
b00000111101 $
b0000000000000000111101 )
#123
#124
b0000000000000000111110 #
b00000111110 $
b0000000000000000111110 )
#125
#126
b0000000000000000111111 #
b00000111111 $
b0000000000000000111111 )
#127
#128
b0000000000000001000000 #
b00001000000 $
b0000000000000001000000 )
#129
#130
b0000000000000001000001 #
b00001000001 $
b0000000000000001000001 )
#131
#132
b0000000000000001000010 #
b00001000010 $
b0000000000000001000010 )
#133
#134
b0000000000000001000011 #
b00001000011 $
b0000000000000001000011 )
#135
#136
b0000000000000001000100 #
b00001000100 $
b0000000000000001000100 )
#137
#138
b0000000000000001000101 #
b00001000101 $
b0000000000000001000101 )
#139
#140
b0000000000000001000110 #
b00001000110 $
b0000000000000001000110 )
#141
#142
b0000000000000001000111 #
b00001000111 $
b0000000000000001000111 )
#143
#144
b0000000000000001001000 #
b00001001000 $
b0000000000000001001000 )
#145
#146
b0000000000000001001001 #
b00001001001 $
b0000000000000001001001 )
#147
#148
b0000000000000001001010 #
b00001001010 $
b0000000000000001001010 )
#149
#150
b0000000000000001001011 #
b00001001011 $
b0000000000000001001011 )
#151
#152
b0000000000000001001100 #
b00001001100 $
b0000000000000001001100 )
#153
#154
b0000000000000001001101 #
b00001001101 $
b0000000000000001001101 )
#155
#156
b0000000000000001001110 #
b00001001110 $
b0000000000000001001110 )
#157
#158
b0000000000000001001111 #
b00001001111 $
b0000000000000001001111 )
#159
#160
b0000000000000001010000 #
b00001010000 $
b0000000000000001010000 )
#161
#162
b0000000000000001010001 #
b00001010001 $
b0000000000000001010001 )
#163
#164
b0000000000000001010010 #
b00001010010 $
b0000000000000001010010 )
#165
#166
b0000000000000001010011 #
b00001010011 $
b0000000000000001010011 )
#167
#168
b0000000000000001010100 #
b00001010100 $
b0000000000000001010100 )
#169
#170
b0000000000000001010101 #
b00001010101 $
b0000000000000001010101 )
#171
#172
b0000000000000001010110 #
b00001010110 $
b0000000000000001010110 )
#173
#174
b0000000000000001010111 #
b00001010111 $
b0000000000000001010111 )
#175
#176
b0000000000000001011000 #
b00001011000 $
b0000000000000001011000 )
#177
#178
b0000000000000001011001 #
b00001011001 $
b0000000000000001011001 )
#179
#180
b0000000000000001011010 #
b00001011010 $
b0000000000000001011010 )
#181
#182
b0000000000000001011011 #
b00001011011 $
b0000000000000001011011 )
#183
#184
b0000000000000001011100 #
b00001011100 $
b0000000000000001011100 )
#185
#186
b0000000000000001011101 #
b00001011101 $
b0000000000000001011101 )
#187
#188
b0000000000000001011110 #
b00001011110 $
b0000000000000001011110 )
#189
#190
b0000000000000001011111 #
b00001011111 $
b0000000000000001011111 )
#191
#192
b0000000000000001100000 #
b00001100000 $
b0000000000000001100000 )
#193
#194
b0000000000000001100001 #
b00001100001 $
b0000000000000001100001 )
#195
#196
b0000000000000001100010 #
b00001100010 $
b0000000000000001100010 )
#197
#198
b0000000000000001100011 #
b00001100011 $
b0000000000000001100011 )
#199
#200
b0000000000000001100100 #
b00001100100 $
b0000000000000001100100 )
#201
#202
b0000000000000001100101 #
b00001100101 $
b0000000000000001100101 )
#203
#204
b0000000000000001100110 #
b00001100110 $
b0000000000000001100110 )
#205
#206
b0000000000000001100111 #
b00001100111 $
b0000000000000001100111 )
#207
#208
b0000000000000001101000 #
b00001101000 $
b0000000000000001101000 )
#209
#210
b0000000000000001101001 #
b00001101001 $
b0000000000000001101001 )
#211
#212
b0000000000000001101010 #
b00001101010 $
b0000000000000001101010 )
#213
#214
b0000000000000001101011 #
b00001101011 $
b0000000000000001101011 )
#215
#216
b0000000000000001101100 #
b00001101100 $
b0000000000000001101100 )
#217
#218
b0000000000000001101101 #
b00001101101 $
b0000000000000001101101 )
#219
#220
b0000000000000001101110 #
b00001101110 $
b0000000000000001101110 )
#221
#222
b0000000000000001101111 #
b00001101111 $
b0000000000000001101111 )
#223
#224
b0000000000000001110000 #
b00001110000 $
b0000000000000001110000 )
#225
#226
b0000000000000001110001 #
b00001110001 $
b0000000000000001110001 )
#227
#228
b0000000000000001110010 #
b00001110010 $
b0000000000000001110010 )
#229
#230
b0000000000000001110011 #
b00001110011 $
b0000000000000001110011 )
#231
#232
b0000000000000001110100 #
b00001110100 $
b0000000000000001110100 )
#233
#234
b0000000000000001110101 #
b00001110101 $
b0000000000000001110101 )
#235
#236
b0000000000000001110110 #
b00001110110 $
b0000000000000001110110 )
#237
#238
b0000000000000001110111 #
b00001110111 $
b0000000000000001110111 )
#239
#240
b0000000000000001111000 #
b00001111000 $
b0000000000000001111000 )
#241
#242
b0000000000000001111001 #
b00001111001 $
b0000000000000001111001 )
#243
#244
b0000000000000001111010 #
b00001111010 $
b0000000000000001111010 )
#245
#246
b0000000000000001111011 #
b00001111011 $
b0000000000000001111011 )
#247
#248
b0000000000000001111100 #
b00001111100 $
b0000000000000001111100 )
#249
#250
b0000000000000001111101 #
b00001111101 $
b0000000000000001111101 )
#251
#252
b0000000000000001111110 #
b00001111110 $
b0000000000000001111110 )
#253
#254
b0000000000000001111111 #
b00001111111 $
b0000000000000001111111 )
#255
#256
b0000000000000010000000 #
b00010000000 $
b0000000000000010000000 )
#257
#258
b0000000000000010000001 #
b00010000001 $
b0000000000000010000001 )
#259
#260
b0000000000000010000010 #
b00010000010 $
b0000000000000010000010 )
#261
#262
b0000000000000010000011 #
b00010000011 $
b0000000000000010000011 )
#263
#264
b0000000000000010000100 #
b00010000100 $
b0000000000000010000100 )
#265
#266
b0000000000000010000101 #
b00010000101 $
b0000000000000010000101 )
#267
#268
b0000000000000010000110 #
b00010000110 $
b0000000000000010000110 )
#269
#270
b0000000000000010000111 #
b00010000111 $
b0000000000000010000111 )
#271
#272
b0000000000000010001000 #
b00010001000 $
b0000000000000010001000 )
#273
#274
b0000000000000010001001 #
b00010001001 $
b0000000000000010001001 )
#275
#276
b0000000000000010001010 #
b00010001010 $
b0000000000000010001010 )
#277
#278
b0000000000000010001011 #
b00010001011 $
b0000000000000010001011 )
#279
#280
b0000000000000010001100 #
b00010001100 $
b0000000000000010001100 )
#281
#282
b0000000000000010001101 #
b00010001101 $
b0000000000000010001101 )
#283
#284
b0000000000000010001110 #
b00010001110 $
b0000000000000010001110 )
#285
#286
b0000000000000010001111 #
b00010001111 $
b0000000000000010001111 )
#287
#288
b0000000000000010010000 #
b00010010000 $
b0000000000000010010000 )
#289
#290
b0000000000000010010001 #
b00010010001 $
b0000000000000010010001 )
#291
#292
b0000000000000010010010 #
b00010010010 $
b0000000000000010010010 )
#293
#294
b0000000000000010010011 #
b00010010011 $
b0000000000000010010011 )
#295
#296
b0000000000000010010100 #
b00010010100 $
b0000000000000010010100 )
#297
#298
b0000000000000010010101 #
b00010010101 $
b0000000000000010010101 )
#299
#300
b0000000000000010010110 #
b00010010110 $
b0000000000000010010110 )
#301
#302
b0000000000000010010111 #
b00010010111 $
b0000000000000010010111 )
#303
#304
b0000000000000010011000 #
b00010011000 $
b0000000000000010011000 )
#305
#306
b0000000000000010011001 #
b00010011001 $
b0000000000000010011001 )
#307
#308
b0000000000000010011010 #
b00010011010 $
b0000000000000010011010 )
#309
#310
b0000000000000010011011 #
b00010011011 $
b0000000000000010011011 )
#311
#312
b0000000000000010011100 #
b00010011100 $
b0000000000000010011100 )
#313
#314
b0000000000000010011101 #
b00010011101 $
b0000000000000010011101 )
#315
#316
b0000000000000010011110 #
b00010011110 $
b0000000000000010011110 )
#317
#318
b0000000000000010011111 #
b00010011111 $
b0000000000000010011111 )
#319
#320
b0000000000000010100000 #
b00010100000 $
b0000000000000010100000 )
#321
#322
b0000000000000010100001 #
b00010100001 $
b0000000000000010100001 )
#323
#324
b0000000000000010100010 #
b00010100010 $
b0000000000000010100010 )
#325
#326
b0000000000000010100011 #
b00010100011 $
b0000000000000010100011 )
#327
#328
b0000000000000010100100 #
b00010100100 $
b0000000000000010100100 )
#329
#330
b0000000000000010100101 #
b00010100101 $
b0000000000000010100101 )
#331
#332
b0000000000000010100110 #
b00010100110 $
b0000000000000010100110 )
#333
#334
b0000000000000010100111 #
b00010100111 $
b0000000000000010100111 )
#335
#336
b0000000000000010101000 #
b00010101000 $
b0000000000000010101000 )
#337
#338
b0000000000000010101001 #
b00010101001 $
b0000000000000010101001 )
#339
#340
b0000000000000010101010 #
b00010101010 $
b0000000000000010101010 )
#341
#342
b0000000000000010101011 #
b00010101011 $
b0000000000000010101011 )
#343
#344
b0000000000000010101100 #
b00010101100 $
b0000000000000010101100 )
#345
#346
b0000000000000010101101 #
b00010101101 $
b0000000000000010101101 )
#347
#348
b0000000000000010101110 #
b00010101110 $
b0000000000000010101110 )
#349
#350
b0000000000000010101111 #
b00010101111 $
b0000000000000010101111 )
#351
#352
b0000000000000010110000 #
b00010110000 $
b0000000000000010110000 )
#353
#354
b0000000000000010110001 #
b00010110001 $
b0000000000000010110001 )
#355
#356
b0000000000000010110010 #
b00010110010 $
b0000000000000010110010 )
#357
#358
b0000000000000010110011 #
b00010110011 $
b0000000000000010110011 )
#359
#360
b0000000000000010110100 #
b00010110100 $
b0000000000000010110100 )
#361
#362
b0000000000000010110101 #
b00010110101 $
b0000000000000010110101 )
#363
#364
b0000000000000010110110 #
b00010110110 $
b0000000000000010110110 )
#365
#366
b0000000000000010110111 #
b00010110111 $
b0000000000000010110111 )
#367
#368
b0000000000000010111000 #
b00010111000 $
b0000000000000010111000 )
#369
#370
b0000000000000010111001 #
b00010111001 $
b0000000000000010111001 )
#371
#372
b0000000000000010111010 #
b00010111010 $
b0000000000000010111010 )
#373
#374
b0000000000000010111011 #
b00010111011 $
b0000000000000010111011 )
#375
#376
b0000000000000010111100 #
b00010111100 $
b0000000000000010111100 )
#377
#378
b0000000000000010111101 #
b00010111101 $
b0000000000000010111101 )
#379
#380
b0000000000000010111110 #
b00010111110 $
b0000000000000010111110 )
#381
#382
b0000000000000010111111 #
b00010111111 $
b0000000000000010111111 )
#383
#384
b0000000000000011000000 #
b00011000000 $
b0000000000000011000000 )
#385
#386
b0000000000000011000001 #
b00011000001 $
b0000000000000011000001 )
#387
#388
b0000000000000011000010 #
b00011000010 $
b0000000000000011000010 )
#389
#390
b0000000000000011000011 #
b00011000011 $
b0000000000000011000011 )
#391
#392
b0000000000000011000100 #
b00011000100 $
b0000000000000011000100 )
#393
#394
b0000000000000011000101 #
b00011000101 $
b0000000000000011000101 )
#395
#396
b0000000000000011000110 #
b00011000110 $
b0000000000000011000110 )
#397
#398
b0000000000000011000111 #
b00011000111 $
b0000000000000011000111 )
#399
#400
b0000000000000011001000 #
b00011001000 $
b0000000000000011001000 )
#401
#402
b0000000000000011001001 #
b00011001001 $
b0000000000000011001001 )
#403
#404
b0000000000000011001010 #
b00011001010 $
b0000000000000011001010 )
#405
#406
b0000000000000011001011 #
b00011001011 $
b0000000000000011001011 )
#407
#408
b0000000000000011001100 #
b00011001100 $
b0000000000000011001100 )
#409
#410
b0000000000000011001101 #
b00011001101 $
b0000000000000011001101 )
#411
#412
b0000000000000011001110 #
b00011001110 $
b0000000000000011001110 )
#413
#414
b0000000000000011001111 #
b00011001111 $
b0000000000000011001111 )
#415
#416
b0000000000000011010000 #
b00011010000 $
b0000000000000011010000 )
#417
#418
b0000000000000011010001 #
b00011010001 $
b0000000000000011010001 )
#419
#420
b0000000000000011010010 #
b00011010010 $
b0000000000000011010010 )
#421
#422
b0000000000000011010011 #
b00011010011 $
b0000000000000011010011 )
#423
#424
b0000000000000011010100 #
b00011010100 $
b0000000000000011010100 )
#425
#426
b0000000000000011010101 #
b00011010101 $
b0000000000000011010101 )
#427
#428
b0000000000000011010110 #
b00011010110 $
b0000000000000011010110 )
#429
#430
b0000000000000011010111 #
b00011010111 $
b0000000000000011010111 )
#431
#432
b0000000000000011011000 #
b00011011000 $
b0000000000000011011000 )
#433
#434
b0000000000000011011001 #
b00011011001 $
b0000000000000011011001 )
#435
#436
b0000000000000011011010 #
b00011011010 $
b0000000000000011011010 )
#437
#438
b0000000000000011011011 #
b00011011011 $
b0000000000000011011011 )
#439
#440
b0000000000000011011100 #
b00011011100 $
b0000000000000011011100 )
#441
#442
b0000000000000011011101 #
b00011011101 $
b0000000000000011011101 )
#443
#444
b0000000000000011011110 #
b00011011110 $
b0000000000000011011110 )
#445
#446
b0000000000000011011111 #
b00011011111 $
b0000000000000011011111 )
#447
#448
b0000000000000011100000 #
b00011100000 $
b0000000000000011100000 )
#449
#450
b0000000000000011100001 #
b00011100001 $
b0000000000000011100001 )
#451
#452
b0000000000000011100010 #
b00011100010 $
b0000000000000011100010 )
#453
#454
b0000000000000011100011 #
b00011100011 $
b0000000000000011100011 )
#455
#456
b0000000000000011100100 #
b00011100100 $
b0000000000000011100100 )
#457
#458
b0000000000000011100101 #
b00011100101 $
b0000000000000011100101 )
#459
#460
b0000000000000011100110 #
b00011100110 $
b0000000000000011100110 )
#461
#462
b0000000000000011100111 #
b00011100111 $
b0000000000000011100111 )
#463
#464
b0000000000000011101000 #
b00011101000 $
b0000000000000011101000 )
#465
#466
b0000000000000011101001 #
b00011101001 $
b0000000000000011101001 )
#467
#468
b0000000000000011101010 #
b00011101010 $
b0000000000000011101010 )
#469
#470
b0000000000000011101011 #
b00011101011 $
b0000000000000011101011 )
#471
#472
b0000000000000011101100 #
b00011101100 $
b0000000000000011101100 )
#473
#474
b0000000000000011101101 #
b00011101101 $
b0000000000000011101101 )
#475
#476
b0000000000000011101110 #
b00011101110 $
b0000000000000011101110 )
#477
#478
b0000000000000011101111 #
b00011101111 $
b0000000000000011101111 )
#479
#480
b0000000000000011110000 #
b00011110000 $
b0000000000000011110000 )
#481
#482
b0000000000000011110001 #
b00011110001 $
b0000000000000011110001 )
#483
#484
b0000000000000011110010 #
b00011110010 $
b0000000000000011110010 )
#485
#486
b0000000000000011110011 #
b00011110011 $
b0000000000000011110011 )
#487
#488
b0000000000000011110100 #
b00011110100 $
b0000000000000011110100 )
#489
#490
b0000000000000011110101 #
b00011110101 $
b0000000000000011110101 )
#491
#492
b0000000000000011110110 #
b00011110110 $
b0000000000000011110110 )
#493
#494
b0000000000000011110111 #
b00011110111 $
b0000000000000011110111 )
#495
#496
b0000000000000011111000 #
b00011111000 $
b0000000000000011111000 )
#497
#498
b0000000000000011111001 #
b00011111001 $
b0000000000000011111001 )
#499
#500
b0000000000000011111010 #
b00011111010 $
b0000000000000011111010 )
#501
#502
b0000000000000011111011 #
b00011111011 $
b0000000000000011111011 )
#503
#504
b0000000000000011111100 #
b00011111100 $
b0000000000000011111100 )
#505
#506
b0000000000000011111101 #
b00011111101 $
b0000000000000011111101 )
#507
#508
b0000000000000011111110 #
b00011111110 $
b0000000000000011111110 )
#509
#510
b0000000000000011111111 #
b00011111111 $
b0000000000000011111111 )
#511
#512
b0000000000000100000000 #
b00100000000 $
b0000000000000100000000 )
#513
#514
b0000000000000100000001 #
b00100000001 $
b0000000000000100000001 )
#515
#516
b0000000000000100000010 #
b00100000010 $
b0000000000000100000010 )
#517
#518
b0000000000000100000011 #
b00100000011 $
b0000000000000100000011 )
#519
#520
b0000000000000100000100 #
b00100000100 $
b0000000000000100000100 )
#521
#522
b0000000000000100000101 #
b00100000101 $
b0000000000000100000101 )
#523
#524
b0000000000000100000110 #
b00100000110 $
b0000000000000100000110 )
#525
#526
b0000000000000100000111 #
b00100000111 $
b0000000000000100000111 )
#527
#528
b0000000000000100001000 #
b00100001000 $
b0000000000000100001000 )
#529
#530
b0000000000000100001001 #
b00100001001 $
b0000000000000100001001 )
#531
#532
b0000000000000100001010 #
b00100001010 $
b0000000000000100001010 )
#533
#534
b0000000000000100001011 #
b00100001011 $
b0000000000000100001011 )
#535
#536
b0000000000000100001100 #
b00100001100 $
b0000000000000100001100 )
#537
#538
b0000000000000100001101 #
b00100001101 $
b0000000000000100001101 )
#539
#540
b0000000000000100001110 #
b00100001110 $
b0000000000000100001110 )
#541
#542
b0000000000000100001111 #
b00100001111 $
b0000000000000100001111 )
#543
#544
b0000000000000100010000 #
b00100010000 $
b0000000000000100010000 )
#545
#546
b0000000000000100010001 #
b00100010001 $
b0000000000000100010001 )
#547
#548
b0000000000000100010010 #
b00100010010 $
b0000000000000100010010 )
#549
#550
b0000000000000100010011 #
b00100010011 $
b0000000000000100010011 )
#551
#552
b0000000000000100010100 #
b00100010100 $
b0000000000000100010100 )
#553
#554
b0000000000000100010101 #
b00100010101 $
b0000000000000100010101 )
#555
#556
b0000000000000100010110 #
b00100010110 $
b0000000000000100010110 )
#557
#558
b0000000000000100010111 #
b00100010111 $
b0000000000000100010111 )
#559
#560
b0000000000000100011000 #
b00100011000 $
b0000000000000100011000 )
#561
#562
b0000000000000100011001 #
b00100011001 $
b0000000000000100011001 )
#563
#564
b0000000000000100011010 #
b00100011010 $
b0000000000000100011010 )
#565
#566
b0000000000000100011011 #
b00100011011 $
b0000000000000100011011 )
#567
#568
b0000000000000100011100 #
b00100011100 $
b0000000000000100011100 )
#569
#570
b0000000000000100011101 #
b00100011101 $
b0000000000000100011101 )
#571
#572
b0000000000000100011110 #
b00100011110 $
b0000000000000100011110 )
#573
#574
b0000000000000100011111 #
b00100011111 $
b0000000000000100011111 )
#575
#576
b0000000000000100100000 #
b00100100000 $
b0000000000000100100000 )
#577
#578
b0000000000000100100001 #
b00100100001 $
b0000000000000100100001 )
#579
#580
b0000000000000100100010 #
b00100100010 $
b0000000000000100100010 )
#581
#582
b0000000000000100100011 #
b00100100011 $
b0000000000000100100011 )
#583
#584
b0000000000000100100100 #
b00100100100 $
b0000000000000100100100 )
#585
#586
b0000000000000100100101 #
b00100100101 $
b0000000000000100100101 )
#587
#588
b0000000000000100100110 #
b00100100110 $
b0000000000000100100110 )
#589
#590
b0000000000000100100111 #
b00100100111 $
b0000000000000100100111 )
#591
#592
b0000000000000100101000 #
b00100101000 $
b0000000000000100101000 )
#593
#594
b0000000000000100101001 #
b00100101001 $
b0000000000000100101001 )
#595
#596
b0000000000000100101010 #
b00100101010 $
b0000000000000100101010 )
#597
#598
b0000000000000100101011 #
b00100101011 $
b0000000000000100101011 )
#599
#600
b0000000000000100101100 #
b00100101100 $
b0000000000000100101100 )
#601
#602
b0000000000000100101101 #
b00100101101 $
b0000000000000100101101 )
#603
#604
b0000000000000100101110 #
b00100101110 $
b0000000000000100101110 )
#605
#606
b0000000000000100101111 #
b00100101111 $
b0000000000000100101111 )
#607
#608
b0000000000000100110000 #
b00100110000 $
b0000000000000100110000 )
#609
#610
b0000000000000100110001 #
b00100110001 $
b0000000000000100110001 )
#611
#612
b0000000000000100110010 #
b00100110010 $
b0000000000000100110010 )
#613
#614
b0000000000000100110011 #
b00100110011 $
b0000000000000100110011 )
#615
#616
b0000000000000100110100 #
b00100110100 $
b0000000000000100110100 )
#617
#618
b0000000000000100110101 #
b00100110101 $
b0000000000000100110101 )
#619
#620
b0000000000000100110110 #
b00100110110 $
b0000000000000100110110 )
#621
#622
b0000000000000100110111 #
b00100110111 $
b0000000000000100110111 )
#623
#624
b0000000000000100111000 #
b00100111000 $
b0000000000000100111000 )
#625
#626
b0000000000000100111001 #
b00100111001 $
b0000000000000100111001 )
#627
#628
b0000000000000100111010 #
b00100111010 $
b0000000000000100111010 )
#629
#630
b0000000000000100111011 #
b00100111011 $
b0000000000000100111011 )
#631
#632
b0000000000000100111100 #
b00100111100 $
b0000000000000100111100 )
#633
#634
b0000000000000100111101 #
b00100111101 $
b0000000000000100111101 )
#635
#636
b0000000000000100111110 #
b00100111110 $
b0000000000000100111110 )
#637
#638
b0000000000000100111111 #
b00100111111 $
b0000000000000100111111 )
#639
#640
b0000000000000101000000 #
b00101000000 $
b0000000000000101000000 )
#641
#642
b0000000000000101000001 #
b00101000001 $
b0000000000000101000001 )
#643
#644
b0000000000000101000010 #
b00101000010 $
b0000000000000101000010 )
#645
#646
b0000000000000101000011 #
b00101000011 $
b0000000000000101000011 )
#647
#648
b0000000000000101000100 #
b00101000100 $
b0000000000000101000100 )
#649
#650
b0000000000000101000101 #
b00101000101 $
b0000000000000101000101 )
#651
#652
b0000000000000101000110 #
b00101000110 $
b0000000000000101000110 )
#653
#654
b0000000000000101000111 #
b00101000111 $
b0000000000000101000111 )
#655
#656
b0000000000000101001000 #
b00101001000 $
b0000000000000101001000 )
#657
#658
b0000000000000101001001 #
b00101001001 $
b0000000000000101001001 )
#659
#660
b0000000000000101001010 #
b00101001010 $
b0000000000000101001010 )
#661
#662
b0000000000000101001011 #
b00101001011 $
b0000000000000101001011 )
#663
#664
b0000000000000101001100 #
b00101001100 $
b0000000000000101001100 )
#665
#666
b0000000000000101001101 #
b00101001101 $
b0000000000000101001101 )
#667
#668
b0000000000000101001110 #
b00101001110 $
b0000000000000101001110 )
#669
#670
b0000000000000101001111 #
b00101001111 $
b0000000000000101001111 )
#671
#672
b0000000000000101010000 #
b00101010000 $
b0000000000000101010000 )
#673
#674
b0000000000000101010001 #
b00101010001 $
b0000000000000101010001 )
#675
#676
b0000000000000101010010 #
b00101010010 $
b0000000000000101010010 )
#677
#678
b0000000000000101010011 #
b00101010011 $
b0000000000000101010011 )
#679
#680
b0000000000000101010100 #
b00101010100 $
b0000000000000101010100 )
#681
#682
b0000000000000101010101 #
b00101010101 $
b0000000000000101010101 )
#683
#684
b0000000000000101010110 #
b00101010110 $
b0000000000000101010110 )
#685
#686
b0000000000000101010111 #
b00101010111 $
b0000000000000101010111 )
#687
#688
b0000000000000101011000 #
b00101011000 $
b0000000000000101011000 )
#689
#690
b0000000000000101011001 #
b00101011001 $
b0000000000000101011001 )
#691
#692
b0000000000000101011010 #
b00101011010 $
b0000000000000101011010 )
#693
#694
b0000000000000101011011 #
b00101011011 $
b0000000000000101011011 )
#695
#696
b0000000000000101011100 #
b00101011100 $
b0000000000000101011100 )
#697
#698
b0000000000000101011101 #
b00101011101 $
b0000000000000101011101 )
#699
#700
b0000000000000101011110 #
b00101011110 $
b0000000000000101011110 )
#701
#702
b0000000000000101011111 #
b00101011111 $
b0000000000000101011111 )
#703
#704
b0000000000000101100000 #
b00101100000 $
b0000000000000101100000 )
#705
#706
b0000000000000101100001 #
b00101100001 $
b0000000000000101100001 )
#707
#708
b0000000000000101100010 #
b00101100010 $
b0000000000000101100010 )
#709
#710
b0000000000000101100011 #
b00101100011 $
b0000000000000101100011 )
#711
#712
b0000000000000101100100 #
b00101100100 $
b0000000000000101100100 )
#713
#714
b0000000000000101100101 #
b00101100101 $
b0000000000000101100101 )
#715
#716
b0000000000000101100110 #
b00101100110 $
b0000000000000101100110 )
#717
#718
b0000000000000101100111 #
b00101100111 $
b0000000000000101100111 )
#719
#720
b0000000000000101101000 #
b00101101000 $
b0000000000000101101000 )
#721
#722
b0000000000000101101001 #
b00101101001 $
b0000000000000101101001 )
#723
#724
b0000000000000101101010 #
b00101101010 $
b0000000000000101101010 )
#725
#726
b0000000000000101101011 #
b00101101011 $
b0000000000000101101011 )
#727
#728
b0000000000000101101100 #
b00101101100 $
b0000000000000101101100 )
#729
#730
b0000000000000101101101 #
b00101101101 $
b0000000000000101101101 )
#731
#732
b0000000000000101101110 #
b00101101110 $
b0000000000000101101110 )
#733
#734
b0000000000000101101111 #
b00101101111 $
b0000000000000101101111 )
#735
#736
b0000000000000101110000 #
b00101110000 $
b0000000000000101110000 )
#737
#738
b0000000000000101110001 #
b00101110001 $
b0000000000000101110001 )
#739
#740
b0000000000000101110010 #
b00101110010 $
b0000000000000101110010 )
#741
#742
b0000000000000101110011 #
b00101110011 $
b0000000000000101110011 )
#743
#744
b0000000000000101110100 #
b00101110100 $
b0000000000000101110100 )
#745
#746
b0000000000000101110101 #
b00101110101 $
b0000000000000101110101 )
#747
#748
b0000000000000101110110 #
b00101110110 $
b0000000000000101110110 )
#749
#750
b0000000000000101110111 #
b00101110111 $
b0000000000000101110111 )
#751
#752
b0000000000000101111000 #
b00101111000 $
b0000000000000101111000 )
#753
#754
b0000000000000101111001 #
b00101111001 $
b0000000000000101111001 )
#755
#756
b0000000000000101111010 #
b00101111010 $
b0000000000000101111010 )
#757
#758
b0000000000000101111011 #
b00101111011 $
b0000000000000101111011 )
#759
#760
b0000000000000101111100 #
b00101111100 $
b0000000000000101111100 )
#761
#762
b0000000000000101111101 #
b00101111101 $
b0000000000000101111101 )
#763
#764
b0000000000000101111110 #
b00101111110 $
b0000000000000101111110 )
#765
#766
b0000000000000101111111 #
b00101111111 $
b0000000000000101111111 )
#767
